{
    "/js/app.js": "/js/app.js",
    "/css/app.css": "/css/app.css",
    "/storage/client/translate.css": "/storage/client/translate.css",
    "/storage/client/translate.js": "/storage/client/translate.js",
    "/storage/client/webtrans.js": "/storage/client/webtrans.js"
}
